<?xml version="1.0" encoding="utf-8"?>
<!-- Generator: Adobe Illustrator 20.1.0, SVG Export Plug-In . SVG Version: 6.00 Build 0)  -->
<svg version="1.1" id="Слой_1" xmlns="http://www.w3.org/2000/svg" xmlns:xlink="http://www.w3.org/1999/xlink" x="0px" y="0px"
	 viewBox="0 0 19 19" style="enable-background:new 0 0 19 19;" xml:space="preserve">
<style type="text/css">
	.st0{fill:none;enable-background:new    ;}
	.st1{fill:#F6B559;}
</style>
<path class="st0" d="z"/>
<g>
	<path class="st1" d="M9.5,1C14.2,1,18,4.8,18,9.5S14.2,18,9.5,18S1,14.2,1,9.5S4.8,1,9.5,1 M9.5,0C4.3,0,0,4.3,0,9.5
		C0,14.7,4.3,19,9.5,19S19,14.7,19,9.5C19,4.3,14.7,0,9.5,0L9.5,0z"/>
</g>
<polygon class="st1" points="8.1,6.1 8.1,13 11.7,9.4 "/>
</svg>
